Лабораторна робота №4: Оптимізація коду в R — від циклів до функціонального програмування
…
  return(df)
}

file_paths <- list.files("monthly_reports", pattern = "\\.csv$", full.names = TRUE)

all_sales <- lapply(file_paths, safe_read_report) %>% bind_rows()
all_sales

# A tibble: 100 × 5
   product_id region units_sold price_per_unit discount_percent
   <chr>      <chr>       <dbl>          <dbl>            <dbl>
 1 109        North          19          18.3                 5
 2 115        East           35          12.3                10
 3 198        West           46           7.34                0
 4 137        South          44          38.8                15
 5 187        South          16          33.0                 5
 6 130        East           38          22.6                 0
 7 102        North          31          35.6                 0
 8 148        West           40          26.2                 0
 9 146        West           17           7.77               15
10 111        East            2          14.5                 5
# ℹ 90 more rows
…
