Лабораторна робота №5: Функціональне програмування та паралельні обчислення в R
…
add_file_id <- function(df, file_path) {
  if (is.null(df)) return(tibble())
  fid <- tools::file_path_sans_ext(basename(file_path))
  df %>% mutate(file_id = fid)
}

combined_all <- map2(raw_list, files, add_file_id) %>%
  reduce(bind_rows, .init = tibble())  

#combined_high <- map2(high_value_list, files, add_file_id) %>%
#  reduce(bind_rows, .init = tibble())

combined_all

# A tibble: 35 × 11
    ...1 product_id name             price date   manager clients count sale_sum
   <dbl>      <dbl> <chr>            <dbl> <chr>  <chr>   <chr>   <int>    <dbl>
 1     1          9 Air conditioning   500 2024-… Ivan    client…     3     1500
 2     2          8 Wifi router         80 2024-… Ivan    client…     1       80
 3     3          7 XBox               870 2024-… Ivan    client…     1      870
 4     4          2 Smarthphone        850 2024-… Ivan    client…     1      850
 5     5         10 Tablet             150 2024-… Ivan    client…     1      150
 6     1         10 Tablet             150 2024-… Ivan    client…     2      300
 7     2          6 TV                 700 2024-… Ivan    client…     1      700
 8     3          8 Wifi router         80 2024-… Ivan    client…     2      160
 9     4          2 Smarthphone        850 2024-… Ivan    client…     3     2550
10     5          7 XBox               870 2024-… Ivan    client…     2     1740
# ℹ 25 more rows
# ℹ 2 more variables: transaction_id <dbl>, file_id <chr>
…
validated_by_file <- map(outer_results, ~ .x$result) %>% reduce(bind_rows, .init = tibble())

plan(sequential)

validated_by_file

# A tibble: 35 × 11
    ...1 product_id name             price date   manager clients count sale_sum
   <dbl>      <dbl> <chr>            <dbl> <chr>  <chr>   <chr>   <int>    <dbl>
 1     1          9 Air conditioning   500 2024-… Ivan    client…     3     1500
 2     2          8 Wifi router         80 2024-… Ivan    client…     1       80
 3     3          7 XBox               870 2024-… Ivan    client…     1      870
 4     4          2 Smarthphone        850 2024-… Ivan    client…     1      850
 5     5         10 Tablet             150 2024-… Ivan    client…     1      150
 6     1         10 Tablet             150 2024-… Ivan    client…     2      300
 7     2          6 TV                 700 2024-… Ivan    client…     1      700
 8     3          8 Wifi router         80 2024-… Ivan    client…     2      160
 9     4          2 Smarthphone        850 2024-… Ivan    client…     3     2550
10     5          7 XBox               870 2024-… Ivan    client…     2     1740
# ℹ 25 more rows
# ℹ 2 more variables: transaction_id <dbl>, .validation_ok <lgl>
…
