Лабораторна робота №2: Інтеграція та об’єднання даних з різних джерел
…
[[4]]
 [1] "devtools"  "usethis"   "readxl"    "vroom"     "stats"     "graphics" 
 [7] "grDevices" "utils"     "datasets"  "methods"   "base"     

Code

library("vroom")

cs_data <- vroom(file = "data/customers.csv")

cs_data

# A tibble: 900 × 3
   customer_id region  customer_type
         <dbl> <chr>   <chr>        
 1         100 East    B2C          
 2         101 East    B2B          
 3         102 North   B2C          
 4         103 West    B2C          
 5         104 Central B2C          
 6         105 North   B2C          
 7         106 East    B2B          
 8         107 East    B2B          
 9         108 South   B2B          
10         109 East    B2C          
# ℹ 890 more rows
…
all_sales

# A tibble: 90 × 6
   order_id product_id quantity price_per_unit customer_id month  
      <dbl>      <dbl>    <dbl>          <dbl>       <dbl> <chr>  
 1     1001          6        2           833.         242 2025-01
 2     1002          2        4           384.         242 2025-01
 3     1003          6        8           768.         582 2025-01
 4     1004          3        2           110.         431 2025-01
 5     1005          6        8          1174.         526 2025-01
 6     1006          7        8           484.         898 2025-01
 7     1007          7        7           660.         467 2025-01
 8     1008          8        1          1328.         470 2025-01
 9     1009          3        5           687.         923 2025-01
10     1010          2        9           924.         528 2025-01
# ℹ 80 more rows

Горизонтальне об’єднання

Додайте до all_sales інформацію про товари (product_name, category) через left_join.

Додайте інформацію про клієнтів (region, customer_type) через left_join.

Code

all_sales <- left_join(all_sales, s_q1[['products']], by="product_id") |> 
  left_join(cs_data, by="customer_id")

all_sales

# A tibble: 90 × 10
   order_id product_id quantity price_per_unit customer_id month   product_name
      <dbl>      <dbl>    <dbl>          <dbl>       <dbl> <chr>   <chr>       
 1     1001          6        2           833.         242 2025-01 Headphones  
 2     1002          2        4           384.         242 2025-01 Smartphone  
 3     1003          6        8           768.         582 2025-01 Headphones  
 4     1004          3        2           110.         431 2025-01 Desk Chair  
 5     1005          6        8          1174.         526 2025-01 Headphones  
 6     1006          7        8           484.         898 2025-01 Monitor     
 7     1007          7        7           660.         467 2025-01 Monitor     
 8     1008          8        1          1328.         470 2025-01 Desk Lamp   
 9     1009          3        5           687.         923 2025-01 Desk Chair  
10     1010          2        9           924.         528 2025-01 Smartphone  
# ℹ 80 more rows
# ℹ 3 more variables: category <chr>, region <chr>, customer_type <chr>
…
