Лабораторна робота №3:Робота зі структурованими даними, перетворення форматів та віконні операції
…
Code

library(readxl)
library(stringr)

bonuses_long <-read_excel('data/bonuses_q1.xlsx', sheet = 'jan') |> 
  mutate(month = "2025-01") |>
  bind_rows(read_excel('data/bonuses_q1.xlsx', sheet = 'feb') |> 
              mutate(month = "2025-02")) |> 
  bind_rows(read_excel('data/bonuses_q1.xlsx', sheet = 'mar') |> 
              mutate(month = "2025-03"))

bonuses_long

# A tibble: 36 × 3
   employee_id bonus_amount month  
         <dbl>        <dbl> <chr>  
 1           1            0 2025-01
 2           2          331 2025-01
 3           3          121 2025-01
 4           4          367 2025-01
 5           5          232 2025-01
 6           6          221 2025-01
 7           7          138 2025-01
 8           8            0 2025-01
 9           9          362 2025-01
10          10          192 2025-01
# ℹ 26 more rows

Code

penalties_long <- read_excel('data/penalties_q1.xlsx', sheet = 'jan') |> 
  mutate(month = "2025-01") |>
  bind_rows(read_excel('data/penalties_q1.xlsx', sheet = 'feb') |> 
              mutate(month = "2025-02")) |> 
  bind_rows(read_excel('data/penalties_q1.xlsx', sheet = 'mar') |> 
              mutate(month = "2025-03"))

penalties_long

# A tibble: 36 × 3
   employee_id penalty_amount month  
         <dbl>          <dbl> <chr>  
 1           1            382 2025-01
 2           2            356 2025-01
 3           3              0 2025-01
 4           4            288 2025-01
 5           5              0 2025-01
 6           6              0 2025-01
 7           7            315 2025-01
 8           8            441 2025-01
 9           9              0 2025-01
10          10              0 2025-01
# ℹ 26 more rows
…
staff_dict %>% 
  unnest_wider(employee) %>% 
  mutate(id = 1:12) %>% 
  left_join(bonuses_long, by= c(id = "employee_id")) %>%
  left_join(penalties_long, by= c(id = "employee_id", "month")) %>%
  arrange(id, month) %>%      # задаємо сортування по місяцях
  group_by(id) %>%
  mutate(total_salary = salary + bonus_amount - penalty_amount,
         bonus_rate = bonus_amount / salary,
         salary_change = (total_salary - lag(total_salary)) / lag(total_salary),
         cum_salary = cumsum(total_salary)) %>% 
  select(name, salary, month, bonus_amount,penalty_amount,total_salary,bonus_rate,salary_change,cum_salary)

# A tibble: 36 × 10
# Groups:   id [12]
      id name   salary month bonus_amount penalty_amount total_salary bonus_rate
   <dbl> <chr>   <int> <chr>        <dbl>          <dbl>        <dbl>      <dbl>
 1     1 Alex K   1800 2025…            0            382         1418      0    
 2     1 Alex K   1800 2025…          256              0         2056      0.142
 3     1 Alex K   1800 2025…          294              0         2094      0.163
 4     2 Kiril…   1200 2025…          331            356         1175      0.276
 5     2 Kiril…   1200 2025…          233              0         1433      0.194
 6     2 Kiril…   1200 2025…          164            277         1087      0.137
 7     3 Anna M    950 2025…          121              0         1071      0.127
 8     3 Anna M    950 2025…            0              0          950      0    
 9     3 Anna M    950 2025…          192            350          792      0.202
10     4 Serge…   1700 2025…          367            288         1779      0.216
# ℹ 26 more rows
# ℹ 2 more variables: salary_change <dbl>, cum_salary <dbl>
…
